B15D08ED950E.vcd
$date
	2026-02-12.17:44:54
$end
$version
	Novakod Studio 2018.
$end
$comment
    Port Identifier:
	     >? Input  Port
	     <? Output Port
	     /? Input  Event Port
	     \? Output Event Port
$end
$timescale
	1 ns
$end
$scope module top $end
    $var
        reg 2 <! iCmd
    $end
    $var
        reg 1 \! iCmd_ev
    $end
    $var
        reg 8 <" oValue
    $end
    $var
        reg 1 \" oValue_ev
    $end
    $var
        reg 8 <# iLoadVal
    $end
$upscope $end $enddefinitions $end


#0
b0 <!
b0 <"
b0 <#
#220
b1 <!
1\!
#240
0\!
#280
b1 <"
1\"
#300
0\"
#440
b1 <!
1\!
#460
0\!
#500
b10 <"
1\"
#520
0\"
#660
b1 <!
1\!
#680
0\!
#720
b11 <"
1\"
#740
0\"
#880
b1 <!
1\!
#900
0\!
#940
b100 <"
1\"
#960
0\"
#1100
b1 <!
1\!
#1120
0\!
#1160
b101 <"
1\"
#1180
0\"
#1320
b1 <!
1\!
#1340
0\!
#1380
b110 <"
1\"
#1400
0\"
#1540
b1 <!
1\!
#1560
0\!
#1600
b111 <"
1\"
#1620
0\"
#1760
b10 <!
1\!
#1780
0\!
#1820
b110 <"
1\"
#1840
0\"
#1980
b10 <!
1\!
#2000
0\!
#2040
b101 <"
1\"
#2060
0\"
#2200
b10 <!
1\!
#2220
0\!
#2260
b100 <"
1\"
#2280
0\"
#2400
b10100 <#
#2420
b11 <!
1\!
#2440
0\!
#2480
b10100 <"
1\"
#2500
0\"
#2620
b0 <#
#2640
b1 <!
1\!
#2660
0\!
#2700
b10101 <"
1\"
#2720
0\"
#2860
b1 <!
1\!
#2880
0\!
#2920
b10110 <"
1\"
#2940
0\"
#3080
b1 <!
1\!
#3100
0\!
#3140
b10111 <"
1\"
#3160
0\"
#3300
b1 <!
1\!
#3320
0\!
#3360
b11000 <"
1\"
#3380
0\"
#3520
b1 <!
1\!
#3540
0\!
#3580
b11001 <"
1\"
#3600
0\"
#3740
b1 <!
1\!
#3760
0\!
#3800
b11010 <"
1\"
#3820
0\"
#3960
b1 <!
1\!
#3980
0\!
#4020
b11011 <"
1\"
#4040
0\"
#4180
b0 <!
1\!
#4200
0\!
#4240
b0 <"
1\"
#4260
0\"
#4400
b1 <!
1\!
#4420
0\!
#4460
b1 <"
1\"
#4480
0\"
#4620
b1 <!
1\!
#4640
0\!
#4680
b10 <"
1\"
#4700
0\"
#4840
b1 <!
1\!
#4860
0\!
#4900
b11 <"
1\"
#4920
0\"
