Simulation0.vcd
$date
	2025-11-27.10:40:59
$end
$version
	Novakod Studio 2018.
$end
$comment
    Port Identifier:
	     >? Input  Port
	     <? Output Port
	     /? Input  Event Port
	     \? Output Event Port
$end
$timescale
	1 ns
$end
$scope module top $end
    $var
        reg 2 >! iCmd
    $end
    $var
        reg 1 /! iCmd_ev
    $end
    $var
        reg 8 >" iLoadVal
    $end
    $var
        reg 8 <! oValue
    $end
    $var
        reg 1 \! oValue_ev
    $end
$upscope $end $enddefinitions $end


#0
b0 <!
#100
b1 >!
1/!
#120
0/!
#160
b1 <!
1\!
#180
0\!
#200
b1 >!
1/!
#220
0/!
#260
b10 <!
1\!
#280
0\!
#300
b1 >!
1/!
#320
0/!
#360
b11 <!
1\!
#380
0\!
#400
b1 >!
1/!
#420
0/!
#460
b100 <!
1\!
#480
0\!
#500
b1 >!
1/!
#520
0/!
#560
b101 <!
1\!
#580
0\!
#600
b1 >!
1/!
#620
0/!
#660
b110 <!
1\!
#680
0\!
#700
b1 >!
1/!
#720
0/!
#760
b111 <!
1\!
#780
0\!
#800
b1 >!
1/!
#820
0/!
#860
b1000 <!
1\!
#880
0\!
#900
b10 >!
1/!
#920
0/!
#960
b111 <!
1\!
#980
0\!
#1000
b10 >!
1/!
#1020
0/!
#1060
b110 <!
1\!
#1080
0\!
#1100
b11 >!
1/!
b10100 >"
#1120
0/!
#1160
b10100 <!
1\!
#1180
0\!
#1200
b1 >!
1/!
#1220
0/!
#1260
b10101 <!
1\!
#1280
0\!
#1300
b1 >!
1/!
#1320
0/!
#1360
b10110 <!
1\!
#1380
0\!
#1400
b1 >!
1/!
#1420
0/!
#1460
b10111 <!
1\!
#1480
0\!
#1500
b1 >!
1/!
#1520
0/!
#1560
b11000 <!
1\!
#1580
0\!
#1600
b1 >!
1/!
#1620
0/!
#1660
b11001 <!
1\!
#1680
0\!
#1700
b1 >!
1/!
#1720
0/!
#1760
b11010 <!
1\!
#1780
0\!
#1800
b0 >!
1/!
#1820
0/!
#1860
b0 <!
1\!
#1880
0\!
