Simulation_20260108_200923.vcd
$date
	2026-01-08.20:09:23
$end
$version
	Novakod Studio 2018.
$end
$comment
    Port Identifier:
	     >? Input  Port
	     <? Output Port
	     /? Input  Event Port
	     \? Output Event Port
$end
$timescale
	1 ns
$end
$scope module top $end
    $var
        reg 8 <! oValue
    $end
    $var
        reg 1 \! oValue_ev
    $end
$upscope $end $enddefinitions $end


#0
#140
b1 <!
1\!
#160
0\!
#300
b10 <!
1\!
#320
0\!
#460
b11 <!
1\!
#480
0\!
#620
b100 <!
1\!
#640
0\!
#780
b101 <!
1\!
#800
0\!
#940
b1110 <!
1\!
#960
0\!
#1080
b1110 <!
1\!
#1100
0\!
#1220
b1110 <!
1\!
#1240
0\!
#1360
b1110 <!
1\!
#1380
0\!
#1500
b1110 <!
1\!
#1520
0\!
#1640
b1110 <!
1\!
#1660
0\!
#1780
b1110 <!
1\!
#1800
0\!
#1920
b1110 <!
1\!
#1940
0\!
#2060
b1110 <!
1\!
#2080
0\!
#2200
b1110 <!
1\!
#2220
0\!
#2340
b1110 <!
1\!
#2360
0\!
#2480
b1110 <!
1\!
#2500
0\!
#2620
b1110 <!
1\!
#2640
0\!
#2760
b1110 <!
1\!
#2780
0\!
#2900
b1110 <!
1\!
#2920
0\!
#3040
b1110 <!
1\!
#3060
0\!
#3180
b1110 <!
1\!
#3200
0\!
#3320
b1110 <!
1\!
#3340
0\!
#3460
b1110 <!
1\!
#3480
0\!
#3600
b1110 <!
1\!
#3620
0\!
#3740
b1110 <!
1\!
#3760
0\!
#3880
b1110 <!
1\!
#3900
0\!
#4020
b1110 <!
1\!
#4040
0\!
#4160
b1110 <!
1\!
#4180
0\!
#4300
b1110 <!
1\!
#4320
0\!
#4440
b1110 <!
1\!
#4460
0\!
#4580
b1110 <!
1\!
#4600
0\!
#4720
b1110 <!
1\!
#4740
0\!
#4860
b1110 <!
1\!
#4880
0\!
#5000
b1110 <!
1\!
#5020
0\!
#5140
b1110 <!
1\!
#5160
0\!
#5280
b1110 <!
1\!
#5300
0\!
#5420
b1110 <!
1\!
#5440
0\!
#5560
b1110 <!
1\!
#5580
0\!
#5700
b1110 <!
1\!
#5720
0\!
#5840
b1110 <!
1\!
#5860
0\!
#5980
b1110 <!
1\!
#6000
0\!
#6120
b1110 <!
1\!
#6140
0\!
#6260
b1110 <!
1\!
#6280
0\!
#6400
b1110 <!
1\!
#6420
0\!
#6540
b1110 <!
1\!
#6560
0\!
#6680
b1110 <!
1\!
#6700
0\!
#6820
b1110 <!
1\!
#6840
0\!
#6960
b1110 <!
1\!
#6980
0\!
#7100
b1110 <!
1\!
#7120
0\!
#7240
b1110 <!
1\!
#7260
0\!
#7380
b1110 <!
1\!
#7400
0\!
#7520
b1110 <!
1\!
#7540
0\!
#7660
b1110 <!
1\!
#7680
0\!
#7800
b1110 <!
1\!
#7820
0\!
#7940
b1110 <!
1\!
#7960
0\!
#8080
b1110 <!
1\!
#8100
0\!
#8220
b1110 <!
1\!
#8240
0\!
#8360
b1110 <!
1\!
#8380
0\!
#8500
b1110 <!
1\!
#8520
0\!
#8640
b1110 <!
1\!
#8660
0\!
#8780
b1110 <!
1\!
#8800
0\!
#8920
b1110 <!
1\!
#8940
0\!
#9060
b1110 <!
1\!
#9080
0\!
#9200
b1110 <!
1\!
#9220
0\!
#9340
b1110 <!
1\!
#9360
0\!
#9480
b1110 <!
1\!
#9500
0\!
#9620
b1110 <!
1\!
#9640
0\!
#9760
b1110 <!
1\!
#9780
0\!
#9900
b1110 <!
1\!
#9920
0\!
#10040
b1110 <!
1\!
#10060
0\!
#10180
b1110 <!
1\!
#10200
0\!
#10320
b1110 <!
1\!
#10340
0\!
#10460
b1110 <!
1\!
#10480
0\!
#10600
b1110 <!
1\!
#10620
0\!
#10740
b1110 <!
1\!
#10760
0\!
#10880
b1110 <!
1\!
#10900
0\!
#11020
b1110 <!
1\!
#11040
0\!
#11160
b1110 <!
1\!
#11180
0\!
#11300
b1110 <!
1\!
#11320
0\!
#11440
b1110 <!
1\!
#11460
0\!
#11580
b1110 <!
1\!
#11600
0\!
#11720
b1110 <!
1\!
#11740
0\!
#11860
b1110 <!
1\!
#11880
0\!
#12000
b1110 <!
1\!
#12020
0\!
#12140
b1110 <!
1\!
#12160
0\!
#12280
b1110 <!
1\!
#12300
0\!
#12420
b1110 <!
1\!
#12440
0\!
#12560
b1110 <!
1\!
#12580
0\!
#12700
b1110 <!
1\!
#12720
0\!
#12840
b1110 <!
1\!
#12860
0\!
#12980
b1110 <!
1\!
#13000
0\!
#13120
b1110 <!
1\!
#13140
0\!
#13260
b1110 <!
1\!
#13280
0\!
#13400
b1110 <!
1\!
#13420
0\!
#13540
b1110 <!
1\!
#13560
0\!
#13680
b1110 <!
1\!
#13700
0\!
#13820
b1110 <!
1\!
#13840
0\!
#13960
b1110 <!
1\!
#13980
0\!
#14100
b1110 <!
1\!
#14120
0\!
#14240
b1110 <!
1\!
#14260
0\!
#14380
b1110 <!
1\!
#14400
0\!
#14520
b1110 <!
1\!
#14540
0\!
#14660
b1110 <!
1\!
#14680
0\!
#14800
b1110 <!
1\!
#14820
0\!
#14940
b1110 <!
1\!
#14960
0\!
#15080
b1110 <!
1\!
#15100
0\!
#15220
b1110 <!
1\!
#15240
0\!
#15360
b1110 <!
1\!
#15380
0\!
#15500
b1110 <!
1\!
#15520
0\!
#15640
b1110 <!
1\!
#15660
0\!
#15780
b1110 <!
1\!
#15800
0\!
#15920
b1110 <!
1\!
#15940
0\!
#16060
b1110 <!
1\!
#16080
0\!
#16200
b1110 <!
1\!
#16220
0\!
#16340
b1110 <!
1\!
#16360
0\!
#16480
b1110 <!
1\!
#16500
0\!
#16620
b1110 <!
1\!
#16640
0\!
#16760
b1110 <!
1\!
#16780
0\!
#16900
b1110 <!
1\!
#16920
0\!
#17040
b1110 <!
1\!
#17060
0\!
#17180
b1110 <!
1\!
#17200
0\!
#17320
b1110 <!
1\!
#17340
0\!
#17460
b1110 <!
1\!
#17480
0\!
#17600
b1110 <!
1\!
#17620
0\!
#17740
b1110 <!
1\!
#17760
0\!
#17880
b1110 <!
1\!
#17900
0\!
#18020
b1110 <!
1\!
#18040
0\!
#18160
b1110 <!
1\!
#18180
0\!
#18300
b1110 <!
1\!
#18320
0\!
#18440
b1110 <!
1\!
#18460
0\!
#18580
b1110 <!
1\!
#18600
0\!
#18720
b1110 <!
1\!
#18740
0\!
#18860
b1110 <!
1\!
#18880
0\!
#19000
b1110 <!
1\!
#19020
0\!
#19140
b1110 <!
1\!
#19160
0\!
#19280
b1110 <!
1\!
#19300
0\!
#19420
b1110 <!
1\!
#19440
0\!
#19560
b1110 <!
1\!
#19580
0\!
#19700
b1110 <!
1\!
#19720
0\!
#19840
b1110 <!
1\!
#19860
0\!
#19980
b1110 <!
1\!
#20000
0\!
#20120
b1110 <!
1\!
#20140
0\!
#20260
b1110 <!
1\!
#20280
0\!
#20400
b1110 <!
1\!
#20420
0\!
#20540
b1110 <!
1\!
#20560
0\!
#20680
b1110 <!
1\!
#20700
0\!
#20820
b1110 <!
1\!
#20840
0\!
#20960
b1110 <!
1\!
#20980
0\!
#21100
b1110 <!
1\!
#21120
0\!
#21240
b1110 <!
1\!
#21260
0\!
#21380
b1110 <!
1\!
#21400
0\!
#21520
b1110 <!
1\!
#21540
0\!
#21660
b1110 <!
1\!
#21680
0\!
#21800
b1110 <!
1\!
#21820
0\!
#21940
b1110 <!
1\!
#21960
0\!
#22080
b1110 <!
1\!
#22100
0\!
#22220
b1110 <!
1\!
#22240
0\!
#22360
b1110 <!
1\!
#22380
0\!
#22500
b1110 <!
1\!
#22520
0\!
#22640
b1110 <!
1\!
#22660
0\!
#22780
b1110 <!
1\!
#22800
0\!
#22920
b1110 <!
1\!
#22940
0\!
#23060
b1110 <!
1\!
#23080
0\!
#23200
b1110 <!
1\!
#23220
0\!
#23340
b1110 <!
1\!
#23360
0\!
#23480
b1110 <!
1\!
#23500
0\!
#23620
b1110 <!
1\!
#23640
0\!
#23760
b1110 <!
1\!
#23780
0\!
#23900
b1110 <!
1\!
#23920
0\!
#24040
b1110 <!
1\!
#24060
0\!
#24180
b1110 <!
1\!
#24200
0\!
#24320
b1110 <!
1\!
#24340
0\!
#24460
b1110 <!
1\!
#24480
0\!
#24600
b1110 <!
1\!
#24620
0\!
#24740
b1110 <!
1\!
#24760
0\!
#24880
b1110 <!
1\!
#24900
0\!
#25020
b1110 <!
1\!
#25040
0\!
#25160
b1110 <!
1\!
#25180
0\!
#25300
b1110 <!
1\!
#25320
0\!
#25440
b1110 <!
1\!
#25460
0\!
#25580
b1110 <!
1\!
#25600
0\!
#25720
b1110 <!
1\!
#25740
0\!
#25860
b1110 <!
1\!
#25880
0\!
#26000
b1110 <!
1\!
#26020
0\!
#26140
b1110 <!
1\!
#26160
0\!
#26280
b1110 <!
1\!
#26300
0\!
#26420
b1110 <!
1\!
#26440
0\!
#26560
b1110 <!
1\!
#26580
0\!
#26700
b1110 <!
1\!
#26720
0\!
#26840
b1110 <!
1\!
#26860
0\!
#26980
b1110 <!
1\!
#27000
0\!
#27120
b1110 <!
1\!
#27140
0\!
#27260
b1110 <!
1\!
#27280
0\!
#27400
b1110 <!
1\!
#27420
0\!
#27540
b1110 <!
1\!
#27560
0\!
#27680
b1110 <!
1\!
#27700
0\!
#27820
b1110 <!
1\!
#27840
0\!
#27960
b1110 <!
1\!
#27980
0\!
#28100
b1110 <!
1\!
#28120
0\!
#28240
b1110 <!
1\!
#28260
0\!
#28380
b1110 <!
1\!
#28400
0\!
#28520
b1110 <!
1\!
#28540
0\!
#28660
b1110 <!
1\!
#28680
0\!
#28800
b1110 <!
1\!
#28820
0\!
#28940
b1110 <!
1\!
#28960
0\!
#29080
b1110 <!
1\!
#29100
0\!
#29220
b1110 <!
1\!
#29240
0\!
#29360
b1110 <!
1\!
#29380
0\!
#29500
b1110 <!
1\!
#29520
0\!
#29640
b1110 <!
1\!
#29660
0\!
#29780
b1110 <!
1\!
#29800
0\!
#29920
b1110 <!
1\!
#29940
0\!
#30060
b1110 <!
1\!
#30080
0\!
#30200
b1110 <!
1\!
#30220
0\!
#30340
b1110 <!
1\!
#30360
0\!
#30480
b1110 <!
1\!
#30500
0\!
#30620
b1110 <!
1\!
#30640
0\!
#30760
b1110 <!
1\!
#30780
0\!
#30900
b1110 <!
1\!
#30920
0\!
#31040
b1110 <!
1\!
#31060
0\!
#31180
b1110 <!
1\!
#31200
0\!
#31320
b1110 <!
1\!
#31340
0\!
#31460
b1110 <!
1\!
#31480
0\!
#31600
b1110 <!
1\!
#31620
0\!
#31740
b1110 <!
1\!
#31760
0\!
#31880
b1110 <!
1\!
#31900
0\!
#32020
b1110 <!
1\!
#32040
0\!
#32160
b1110 <!
1\!
#32180
0\!
#32300
b1110 <!
1\!
#32320
0\!
#32440
b1110 <!
1\!
#32460
0\!
#32580
b1110 <!
1\!
#32600
0\!
#32720
b1110 <!
1\!
#32740
0\!
#32860
b1110 <!
1\!
#32880
0\!
#33000
b1110 <!
1\!
#33020
0\!
#33140
b1110 <!
1\!
#33160
0\!
#33280
b1110 <!
1\!
#33300
0\!
#33420
b1110 <!
1\!
#33440
0\!
#33560
b1110 <!
1\!
#33580
0\!
#33700
b1110 <!
1\!
#33720
0\!
#33840
b1110 <!
1\!
#33860
0\!
#33980
b1110 <!
1\!
#34000
0\!
#34120
b1110 <!
1\!
#34140
0\!
#34260
b1110 <!
1\!
#34280
0\!
#34400
b1110 <!
1\!
#34420
0\!
#34540
b1110 <!
1\!
#34560
0\!
#34680
b1110 <!
1\!
#34700
0\!
#34820
b1110 <!
1\!
#34840
0\!
#34960
b1110 <!
1\!
#34980
0\!
#35100
b1110 <!
1\!
#35120
0\!
#35240
b1110 <!
1\!
#35260
0\!
#35380
b1110 <!
1\!
#35400
0\!
#35520
b1110 <!
1\!
#35540
0\!
#35660
b1110 <!
1\!
#35680
0\!
#35800
b1110 <!
1\!
#35820
0\!
#35940
b1110 <!
1\!
#35960
0\!
#36080
b1110 <!
1\!
#36100
0\!
#36220
b1110 <!
1\!
#36240
0\!
#36360
b1110 <!
1\!
#36380
0\!
#36500
b1110 <!
1\!
#36520
0\!
#36640
b1110 <!
1\!
#36660
0\!
#36780
b1110 <!
1\!
#36800
0\!
#36920
b1110 <!
1\!
#36940
0\!
#37060
b1110 <!
1\!
#37080
0\!
#37200
b1110 <!
1\!
#37220
0\!
#37340
b1110 <!
1\!
#37360
0\!
#37480
b1110 <!
1\!
#37500
0\!
#37620
b1110 <!
1\!
#37640
0\!
#37760
b1110 <!
1\!
#37780
0\!
#37900
b1110 <!
1\!
#37920
0\!
#38040
b1110 <!
1\!
#38060
0\!
#38180
b1110 <!
1\!
#38200
0\!
#38320
b1110 <!
1\!
#38340
0\!
#38460
b1110 <!
1\!
#38480
0\!
#38600
b1110 <!
1\!
#38620
0\!
#38740
b1110 <!
1\!
#38760
0\!
#38880
b1110 <!
1\!
#38900
0\!
#39020
b1110 <!
1\!
#39040
0\!
#39160
b1110 <!
1\!
#39180
0\!
#39300
b1110 <!
1\!
#39320
0\!
#39440
b1110 <!
1\!
#39460
0\!
#39580
b1110 <!
1\!
#39600
0\!
#39720
b1110 <!
1\!
#39740
0\!
#39860
b1110 <!
1\!
#39880
0\!
#40000
b1110 <!
1\!
#40020
0\!
