Simulation_20260108_202050.vcd
$date
	2026-01-08.20:20:50
$end
$version
	Novakod Studio 2018.
$end
$comment
    Port Identifier:
	     >? Input  Port
	     <? Output Port
	     /? Input  Event Port
	     \? Output Event Port
$end
$timescale
	1 ns
$end
$scope module top $end
    $var
        reg 8 <! oValue
    $end
    $var
        reg 1 \! oValue_ev
    $end
$upscope $end $enddefinitions $end


#0
b0 <!
#140
b1 <!
1\!
#160
0\!
#260
b10 <!
1\!
#280
0\!
#380
b11 <!
1\!
#400
0\!
#500
b100 <!
1\!
#520
0\!
#620
b101 <!
1\!
#640
0\!
#740
b110 <!
1\!
#760
0\!
#860
b111 <!
1\!
#880
0\!
#980
b1000 <!
1\!
#1000
0\!
#1100
b1001 <!
1\!
#1120
0\!
#1220
b1010 <!
1\!
#1240
0\!
#1340
b1011 <!
1\!
#1360
0\!
#1460
b1100 <!
1\!
#1480
0\!
#1580
b1101 <!
1\!
#1600
0\!
#1700
b1110 <!
1\!
#1720
0\!
#1820
b1111 <!
1\!
#1840
0\!
#1940
b10000 <!
1\!
#1960
0\!
#2100
b100101 <!
1\!
#2120
0\!
#2240
b100100 <!
1\!
#2260
0\!
#2360
b100011 <!
1\!
#2380
0\!
#2480
b100010 <!
1\!
#2500
0\!
#2600
b100001 <!
1\!
#2620
0\!
#2720
b100000 <!
1\!
#2740
0\!
#2840
b11111 <!
1\!
#2860
0\!
#2960
b11110 <!
1\!
#2980
0\!
#3080
b11101 <!
1\!
#3100
0\!
#3200
b11100 <!
1\!
#3220
0\!
#3320
b11011 <!
1\!
#3340
0\!
#3440
b11010 <!
1\!
#3460
0\!
#3560
b11001 <!
1\!
#3580
0\!
#3680
b11000 <!
1\!
#3700
0\!
#3800
b10111 <!
1\!
#3820
0\!
#3920
b10110 <!
1\!
#3940
0\!
#4040
b10101 <!
1\!
#4060
0\!
#4200
b0 <!
1\!
#4220
0\!
#4340
b0 <!
1\!
#4360
0\!
#4480
b0 <!
1\!
#4500
0\!
#4620
b0 <!
1\!
#4640
0\!
#4760
b0 <!
1\!
#4780
0\!
#4900
b0 <!
1\!
#4920
0\!
#5040
b0 <!
1\!
#5060
0\!
#5180
b0 <!
1\!
#5200
0\!
#5320
b0 <!
1\!
#5340
0\!
#5460
b0 <!
1\!
#5480
0\!
#5600
b0 <!
1\!
#5620
0\!
#5740
b0 <!
1\!
#5760
0\!
#5880
b0 <!
1\!
#5900
0\!
#6020
b0 <!
1\!
#6040
0\!
#6160
b0 <!
1\!
#6180
0\!
#6300
b0 <!
1\!
#6320
0\!
#6440
b0 <!
1\!
#6460
0\!
#6580
b0 <!
1\!
#6600
0\!
#6720
b0 <!
1\!
#6740
0\!
#6860
b0 <!
1\!
#6880
0\!
#7000
b0 <!
1\!
#7020
0\!
#7140
b0 <!
1\!
#7160
0\!
#7280
b0 <!
1\!
#7300
0\!
#7420
b0 <!
1\!
#7440
0\!
#7560
b0 <!
1\!
#7580
0\!
#7700
b0 <!
1\!
#7720
0\!
#7840
b0 <!
1\!
#7860
0\!
#7980
b0 <!
1\!
#8000
0\!
#8120
b0 <!
1\!
#8140
0\!
#8260
b0 <!
1\!
#8280
0\!
#8400
b0 <!
1\!
#8420
0\!
#8540
b0 <!
1\!
#8560
0\!
#8680
b0 <!
1\!
#8700
0\!
#8820
b0 <!
1\!
#8840
0\!
#8960
b0 <!
1\!
#8980
0\!
#9100
b0 <!
1\!
#9120
0\!
#9240
b0 <!
1\!
#9260
0\!
#9380
b0 <!
1\!
#9400
0\!
#9520
b0 <!
1\!
#9540
0\!
#9660
b0 <!
1\!
#9680
0\!
#9800
b0 <!
1\!
#9820
0\!
#9940
b0 <!
1\!
#9960
0\!
#10080
b0 <!
1\!
#10100
0\!
#10220
b0 <!
1\!
#10240
0\!
#10360
b0 <!
1\!
#10380
0\!
#10500
b0 <!
1\!
#10520
0\!
#10640
b0 <!
1\!
#10660
0\!
#10780
b0 <!
1\!
#10800
0\!
#10920
b0 <!
1\!
#10940
0\!
#11060
b0 <!
1\!
#11080
0\!
#11200
b0 <!
1\!
#11220
0\!
#11340
b0 <!
1\!
#11360
0\!
#11480
b0 <!
1\!
#11500
0\!
#11620
b0 <!
1\!
#11640
0\!
#11760
b0 <!
1\!
#11780
0\!
#11900
b0 <!
1\!
#11920
0\!
#12040
b0 <!
1\!
#12060
0\!
#12180
b0 <!
1\!
#12200
0\!
#12320
b0 <!
1\!
#12340
0\!
#12460
b0 <!
1\!
#12480
0\!
#12600
b0 <!
1\!
#12620
0\!
#12740
b0 <!
1\!
#12760
0\!
#12880
b0 <!
1\!
#12900
0\!
#13020
b0 <!
1\!
#13040
0\!
#13160
b0 <!
1\!
#13180
0\!
#13300
b0 <!
1\!
#13320
0\!
#13440
b0 <!
1\!
#13460
0\!
#13580
b0 <!
1\!
#13600
0\!
#13720
b0 <!
1\!
#13740
0\!
#13860
b0 <!
1\!
#13880
0\!
#14000
b0 <!
1\!
#14020
0\!
#14140
b0 <!
1\!
#14160
0\!
#14280
b0 <!
1\!
#14300
0\!
#14420
b0 <!
1\!
#14440
0\!
#14560
b0 <!
1\!
#14580
0\!
#14700
b0 <!
1\!
#14720
0\!
#14840
b0 <!
1\!
#14860
0\!
#14980
b0 <!
1\!
#15000
0\!
#15120
b0 <!
1\!
#15140
0\!
#15260
b0 <!
1\!
#15280
0\!
#15400
b0 <!
1\!
#15420
0\!
#15540
b0 <!
1\!
#15560
0\!
#15680
b0 <!
1\!
#15700
0\!
#15820
b0 <!
1\!
#15840
0\!
#15960
b0 <!
1\!
#15980
0\!
#16100
b0 <!
1\!
#16120
0\!
#16240
b0 <!
1\!
#16260
0\!
#16380
b0 <!
1\!
#16400
0\!
#16520
b0 <!
1\!
#16540
0\!
#16660
b0 <!
1\!
#16680
0\!
#16800
b0 <!
1\!
#16820
0\!
#16940
b0 <!
1\!
#16960
0\!
#17080
b0 <!
1\!
#17100
0\!
#17220
b0 <!
1\!
#17240
0\!
#17360
b0 <!
1\!
#17380
0\!
#17500
b0 <!
1\!
#17520
0\!
#17640
b0 <!
1\!
#17660
0\!
#17780
b0 <!
1\!
#17800
0\!
#17920
b0 <!
1\!
#17940
0\!
#18060
b0 <!
1\!
#18080
0\!
#18200
b0 <!
1\!
#18220
0\!
#18340
b0 <!
1\!
#18360
0\!
#18480
b0 <!
1\!
#18500
0\!
#18620
b0 <!
1\!
#18640
0\!
#18760
b0 <!
1\!
#18780
0\!
#18900
b0 <!
1\!
#18920
0\!
#19040
b0 <!
1\!
#19060
0\!
#19180
b0 <!
1\!
#19200
0\!
#19320
b0 <!
1\!
#19340
0\!
#19460
b0 <!
1\!
#19480
0\!
#19600
b0 <!
1\!
#19620
0\!
#19740
b0 <!
1\!
#19760
0\!
#19880
b0 <!
1\!
#19900
0\!
#20020
b0 <!
1\!
#20040
0\!
#20160
b0 <!
1\!
#20180
0\!
#20300
b0 <!
1\!
#20320
0\!
#20440
b0 <!
1\!
#20460
0\!
#20580
b0 <!
1\!
#20600
0\!
#20720
b0 <!
1\!
#20740
0\!
#20860
b0 <!
1\!
#20880
0\!
#21000
b0 <!
1\!
#21020
0\!
#21140
b0 <!
1\!
#21160
0\!
#21280
b0 <!
1\!
#21300
0\!
#21420
b0 <!
1\!
#21440
0\!
#21560
b0 <!
1\!
#21580
0\!
#21700
b0 <!
1\!
#21720
0\!
#21840
b0 <!
1\!
#21860
0\!
#21980
b0 <!
1\!
#22000
0\!
#22120
b0 <!
1\!
#22140
0\!
#22260
b0 <!
1\!
#22280
0\!
#22400
b0 <!
1\!
#22420
0\!
#22540
b0 <!
1\!
#22560
0\!
#22680
b0 <!
1\!
#22700
0\!
#22820
b0 <!
1\!
#22840
0\!
#22960
b0 <!
1\!
#22980
0\!
#23100
b0 <!
1\!
#23120
0\!
#23240
b0 <!
1\!
#23260
0\!
#23380
b0 <!
1\!
#23400
0\!
#23520
b0 <!
1\!
#23540
0\!
#23660
b0 <!
1\!
#23680
0\!
#23800
b0 <!
1\!
#23820
0\!
#23940
b0 <!
1\!
#23960
0\!
#24080
b0 <!
1\!
#24100
0\!
#24220
b0 <!
1\!
#24240
0\!
#24360
b0 <!
1\!
#24380
0\!
#24500
b0 <!
1\!
#24520
0\!
#24640
b0 <!
1\!
#24660
0\!
#24780
b0 <!
1\!
#24800
0\!
#24920
b0 <!
1\!
#24940
0\!
#25060
b0 <!
1\!
#25080
0\!
#25200
b0 <!
1\!
#25220
0\!
#25340
b0 <!
1\!
#25360
0\!
#25480
b0 <!
1\!
#25500
0\!
#25620
b0 <!
1\!
#25640
0\!
#25760
b0 <!
1\!
#25780
0\!
#25900
b0 <!
1\!
#25920
0\!
#26040
b0 <!
1\!
#26060
0\!
#26180
b0 <!
1\!
#26200
0\!
#26320
b0 <!
1\!
#26340
0\!
#26460
b0 <!
1\!
#26480
0\!
#26600
b0 <!
1\!
#26620
0\!
#26740
b0 <!
1\!
#26760
0\!
#26880
b0 <!
1\!
#26900
0\!
#27020
b0 <!
1\!
#27040
0\!
#27160
b0 <!
1\!
#27180
0\!
#27300
b0 <!
1\!
#27320
0\!
#27440
b0 <!
1\!
#27460
0\!
#27580
b0 <!
1\!
#27600
0\!
#27720
b0 <!
1\!
#27740
0\!
#27860
b0 <!
1\!
#27880
0\!
#28000
b0 <!
1\!
#28020
0\!
#28140
b0 <!
1\!
#28160
0\!
#28280
b0 <!
1\!
#28300
0\!
#28420
b0 <!
1\!
#28440
0\!
#28560
b0 <!
1\!
#28580
0\!
#28700
b0 <!
1\!
#28720
0\!
#28840
b0 <!
1\!
#28860
0\!
#28980
b0 <!
1\!
#29000
0\!
#29120
b0 <!
1\!
#29140
0\!
#29260
b0 <!
1\!
#29280
0\!
#29400
b0 <!
1\!
#29420
0\!
#29540
b0 <!
1\!
#29560
0\!
#29680
b0 <!
1\!
#29700
0\!
#29820
b0 <!
1\!
#29840
0\!
#29960
b0 <!
1\!
#29980
0\!
#30100
b0 <!
1\!
#30120
0\!
#30240
b0 <!
1\!
#30260
0\!
#30380
b0 <!
1\!
#30400
0\!
#30520
b0 <!
1\!
#30540
0\!
#30660
b0 <!
1\!
#30680
0\!
#30800
b0 <!
1\!
#30820
0\!
#30940
b0 <!
1\!
#30960
0\!
#31080
b0 <!
1\!
#31100
0\!
#31220
b0 <!
1\!
#31240
0\!
#31360
b0 <!
1\!
#31380
0\!
#31500
b0 <!
1\!
#31520
0\!
#31640
b0 <!
1\!
#31660
0\!
#31780
b0 <!
1\!
#31800
0\!
#31920
b0 <!
1\!
#31940
0\!
#32060
b0 <!
1\!
#32080
0\!
#32200
b0 <!
1\!
#32220
0\!
#32340
b0 <!
1\!
#32360
0\!
#32480
b0 <!
1\!
#32500
0\!
#32620
b0 <!
1\!
#32640
0\!
#32760
b0 <!
1\!
#32780
0\!
#32900
b0 <!
1\!
#32920
0\!
#33040
b0 <!
1\!
#33060
0\!
#33180
b0 <!
1\!
#33200
0\!
#33320
b0 <!
1\!
#33340
0\!
#33460
b0 <!
1\!
#33480
0\!
#33600
b0 <!
1\!
#33620
0\!
#33740
b0 <!
1\!
#33760
0\!
#33880
b0 <!
1\!
#33900
0\!
#34020
b0 <!
1\!
#34040
0\!
#34160
b0 <!
1\!
#34180
0\!
#34300
b0 <!
1\!
#34320
0\!
#34440
b0 <!
1\!
#34460
0\!
#34580
b0 <!
1\!
#34600
0\!
#34720
b0 <!
1\!
#34740
0\!
#34860
b0 <!
1\!
#34880
0\!
#35000
b0 <!
1\!
#35020
0\!
#35140
b0 <!
1\!
#35160
0\!
#35280
b0 <!
1\!
#35300
0\!
#35420
b0 <!
1\!
#35440
0\!
#35560
b0 <!
1\!
#35580
0\!
#35700
b0 <!
1\!
#35720
0\!
#35840
b0 <!
1\!
#35860
0\!
#35980
b0 <!
1\!
#36000
0\!
#36120
b0 <!
1\!
#36140
0\!
#36260
b0 <!
1\!
#36280
0\!
#36400
b0 <!
1\!
#36420
0\!
#36540
b0 <!
1\!
#36560
0\!
#36680
b0 <!
1\!
#36700
0\!
#36820
b0 <!
1\!
#36840
0\!
#36960
b0 <!
1\!
#36980
0\!
#37100
b0 <!
1\!
#37120
0\!
#37240
b0 <!
1\!
#37260
0\!
#37380
b0 <!
1\!
#37400
0\!
#37520
b0 <!
1\!
#37540
0\!
#37660
b0 <!
1\!
#37680
0\!
#37800
b0 <!
1\!
#37820
0\!
#37940
b0 <!
1\!
#37960
0\!
#38080
b0 <!
1\!
#38100
0\!
#38220
b0 <!
1\!
#38240
0\!
#38360
b0 <!
1\!
#38380
0\!
#38500
b0 <!
1\!
#38520
0\!
#38640
b0 <!
1\!
#38660
0\!
#38780
b0 <!
1\!
#38800
0\!
#38920
b0 <!
1\!
#38940
0\!
#39060
b0 <!
1\!
#39080
0\!
#39200
b0 <!
1\!
#39220
0\!
#39340
b0 <!
1\!
#39360
0\!
#39480
b0 <!
1\!
#39500
0\!
#39620
b0 <!
1\!
#39640
0\!
#39760
b0 <!
1\!
#39780
0\!
#39900
b0 <!
1\!
#39920
0\!
