Simulation_20260108_202629.vcd
$date
	2026-01-08.20:26:29
$end
$version
	Novakod Studio 2018.
$end
$comment
    Port Identifier:
	     >? Input  Port
	     <? Output Port
	     /? Input  Event Port
	     \? Output Event Port
$end
$timescale
	1 ns
$end
$scope module top $end
    $var
        reg 8 <! oValue
    $end
    $var
        reg 1 \! oValue_ev
    $end
$upscope $end $enddefinitions $end


#0
b0 <!
#140
b1 <!
1\!
#160
0\!
#260
b10 <!
1\!
#280
0\!
#380
b11 <!
1\!
#400
0\!
#500
b100 <!
1\!
#520
0\!
#620
b101 <!
1\!
#640
0\!
#740
b110 <!
1\!
#760
0\!
#860
b111 <!
1\!
#880
0\!
#980
b1000 <!
1\!
#1000
0\!
#1100
b1001 <!
1\!
#1120
0\!
#1220
b1010 <!
1\!
#1240
0\!
#1340
b1011 <!
1\!
#1360
0\!
#1460
b1100 <!
1\!
#1480
0\!
#1580
b1101 <!
1\!
#1600
0\!
#1700
b1110 <!
1\!
#1720
0\!
#1820
b1111 <!
1\!
#1840
0\!
#1980
b100101 <!
1\!
#2000
0\!
#2080
b100101 <!
1\!
#2100
0\!
#2180
b100101 <!
1\!
#2200
0\!
#2280
b100101 <!
1\!
#2300
0\!
#2380
b100101 <!
1\!
#2400
0\!
#2480
b100101 <!
1\!
#2500
0\!
#2580
b100101 <!
1\!
#2600
0\!
#2680
b100101 <!
1\!
#2700
0\!
#2780
b100101 <!
1\!
#2800
0\!
#2880
b100101 <!
1\!
#2900
0\!
#2980
b100101 <!
1\!
#3000
0\!
#3080
b100101 <!
1\!
#3100
0\!
#3180
b100101 <!
1\!
#3200
0\!
#3280
b100101 <!
1\!
#3300
0\!
#3380
b100101 <!
1\!
#3400
0\!
#3480
b100101 <!
1\!
#3500
0\!
#3580
b100101 <!
1\!
#3600
0\!
#3680
b100101 <!
1\!
#3700
0\!
#3780
b100101 <!
1\!
#3800
0\!
#3880
b100101 <!
1\!
#3900
0\!
#3980
b100101 <!
1\!
#4000
0\!
#4080
b100101 <!
1\!
#4100
0\!
#4180
b100101 <!
1\!
#4200
0\!
#4280
b100101 <!
1\!
#4300
0\!
#4380
b100101 <!
1\!
#4400
0\!
#4480
b100101 <!
1\!
#4500
0\!
#4580
b100101 <!
1\!
#4600
0\!
#4680
b100101 <!
1\!
#4700
0\!
#4780
b100101 <!
1\!
#4800
0\!
#4880
b100101 <!
1\!
#4900
0\!
#4980
b100101 <!
1\!
#5000
0\!
#5080
b100101 <!
1\!
#5100
0\!
#5180
b100101 <!
1\!
#5200
0\!
#5280
b100101 <!
1\!
#5300
0\!
#5380
b100101 <!
1\!
#5400
0\!
#5480
b100101 <!
1\!
#5500
0\!
#5580
b100101 <!
1\!
#5600
0\!
#5680
b100101 <!
1\!
#5700
0\!
#5780
b100101 <!
1\!
#5800
0\!
#5880
b100101 <!
1\!
#5900
0\!
#5980
b100101 <!
1\!
#6000
0\!
#6080
b100101 <!
1\!
#6100
0\!
#6180
b100101 <!
1\!
#6200
0\!
#6280
b100101 <!
1\!
#6300
0\!
#6380
b100101 <!
1\!
#6400
0\!
#6480
b100101 <!
1\!
#6500
0\!
#6580
b100101 <!
1\!
#6600
0\!
#6680
b100101 <!
1\!
#6700
0\!
#6780
b100101 <!
1\!
#6800
0\!
#6880
b100101 <!
1\!
#6900
0\!
#6980
b100101 <!
1\!
#7000
0\!
#7080
b100101 <!
1\!
#7100
0\!
#7180
b100101 <!
1\!
#7200
0\!
#7280
b100101 <!
1\!
#7300
0\!
#7380
b100101 <!
1\!
#7400
0\!
#7480
b100101 <!
1\!
#7500
0\!
#7580
b100101 <!
1\!
#7600
0\!
#7680
b100101 <!
1\!
#7700
0\!
#7780
b100101 <!
1\!
#7800
0\!
#7880
b100101 <!
1\!
#7900
0\!
#7980
b100101 <!
1\!
#8000
0\!
#8080
b100101 <!
1\!
#8100
0\!
#8180
b100101 <!
1\!
#8200
0\!
#8280
b100101 <!
1\!
#8300
0\!
#8380
b100101 <!
1\!
#8400
0\!
#8480
b100101 <!
1\!
#8500
0\!
#8580
b100101 <!
1\!
#8600
0\!
#8680
b100101 <!
1\!
#8700
0\!
#8780
b100101 <!
1\!
#8800
0\!
#8880
b100101 <!
1\!
#8900
0\!
#8980
b100101 <!
1\!
#9000
0\!
#9080
b100101 <!
1\!
#9100
0\!
#9180
b100101 <!
1\!
#9200
0\!
#9280
b100101 <!
1\!
#9300
0\!
#9380
b100101 <!
1\!
#9400
0\!
#9480
b100101 <!
1\!
#9500
0\!
#9580
b100101 <!
1\!
#9600
0\!
#9680
b100101 <!
1\!
#9700
0\!
#9780
b100101 <!
1\!
#9800
0\!
#9880
b100101 <!
1\!
#9900
0\!
#9980
b100101 <!
1\!
#10000
0\!
#10080
b100101 <!
1\!
#10100
0\!
#10180
b100101 <!
1\!
#10200
0\!
#10280
b100101 <!
1\!
#10300
0\!
#10380
b100101 <!
1\!
#10400
0\!
#10480
b100101 <!
1\!
#10500
0\!
#10580
b100101 <!
1\!
#10600
0\!
#10680
b100101 <!
1\!
#10700
0\!
#10780
b100101 <!
1\!
#10800
0\!
#10880
b100101 <!
1\!
#10900
0\!
#10980
b100101 <!
1\!
#11000
0\!
#11080
b100101 <!
1\!
#11100
0\!
#11180
b100101 <!
1\!
#11200
0\!
#11280
b100101 <!
1\!
#11300
0\!
#11380
b100101 <!
1\!
#11400
0\!
#11480
b100101 <!
1\!
#11500
0\!
#11580
b100101 <!
1\!
#11600
0\!
#11680
b100101 <!
1\!
#11700
0\!
#11780
b100101 <!
1\!
#11800
0\!
#11880
b100101 <!
1\!
#11900
0\!
#11980
b100101 <!
1\!
#12000
0\!
#12080
b100101 <!
1\!
#12100
0\!
#12180
b100101 <!
1\!
#12200
0\!
#12280
b100101 <!
1\!
#12300
0\!
#12380
b100101 <!
1\!
#12400
0\!
#12480
b100101 <!
1\!
#12500
0\!
#12580
b100101 <!
1\!
#12600
0\!
#12680
b100101 <!
1\!
#12700
0\!
#12780
b100101 <!
1\!
#12800
0\!
#12880
b100101 <!
1\!
#12900
0\!
#12980
b100101 <!
1\!
#13000
0\!
#13080
b100101 <!
1\!
#13100
0\!
#13180
b100101 <!
1\!
#13200
0\!
#13280
b100101 <!
1\!
#13300
0\!
#13380
b100101 <!
1\!
#13400
0\!
#13480
b100101 <!
1\!
#13500
0\!
#13580
b100101 <!
1\!
#13600
0\!
#13680
b100101 <!
1\!
#13700
0\!
#13780
b100101 <!
1\!
#13800
0\!
#13880
b100101 <!
1\!
#13900
0\!
#13980
b100101 <!
1\!
#14000
0\!
#14080
b100101 <!
1\!
#14100
0\!
#14180
b100101 <!
1\!
#14200
0\!
#14280
b100101 <!
1\!
#14300
0\!
#14380
b100101 <!
1\!
#14400
0\!
#14480
b100101 <!
1\!
#14500
0\!
#14580
b100101 <!
1\!
#14600
0\!
#14680
b100101 <!
1\!
#14700
0\!
#14780
b100101 <!
1\!
#14800
0\!
#14880
b100101 <!
1\!
#14900
0\!
#14980
b100101 <!
1\!
#15000
0\!
#15080
b100101 <!
1\!
#15100
0\!
#15180
b100101 <!
1\!
#15200
0\!
#15280
b100101 <!
1\!
#15300
0\!
#15380
b100101 <!
1\!
#15400
0\!
#15480
b100101 <!
1\!
#15500
0\!
#15580
b100101 <!
1\!
#15600
0\!
#15680
b100101 <!
1\!
#15700
0\!
#15780
b100101 <!
1\!
#15800
0\!
#15880
b100101 <!
1\!
#15900
0\!
#15980
b100101 <!
1\!
#16000
0\!
#16080
b100101 <!
1\!
#16100
0\!
#16180
b100101 <!
1\!
#16200
0\!
#16280
b100101 <!
1\!
#16300
0\!
#16380
b100101 <!
1\!
#16400
0\!
#16480
b100101 <!
1\!
#16500
0\!
#16580
b100101 <!
1\!
#16600
0\!
#16680
b100101 <!
1\!
#16700
0\!
#16780
b100101 <!
1\!
#16800
0\!
#16880
b100101 <!
1\!
#16900
0\!
#16980
b100101 <!
1\!
#17000
0\!
#17080
b100101 <!
1\!
#17100
0\!
#17180
b100101 <!
1\!
#17200
0\!
#17280
b100101 <!
1\!
#17300
0\!
#17380
b100101 <!
1\!
#17400
0\!
#17480
b100101 <!
1\!
#17500
0\!
#17580
b100101 <!
1\!
#17600
0\!
#17680
b100101 <!
1\!
#17700
0\!
#17780
b100101 <!
1\!
#17800
0\!
#17880
b100101 <!
1\!
#17900
0\!
#17980
b100101 <!
1\!
#18000
0\!
#18080
b100101 <!
1\!
#18100
0\!
#18180
b100101 <!
1\!
#18200
0\!
#18280
b100101 <!
1\!
#18300
0\!
#18380
b100101 <!
1\!
#18400
0\!
#18480
b100101 <!
1\!
#18500
0\!
#18580
b100101 <!
1\!
#18600
0\!
#18680
b100101 <!
1\!
#18700
0\!
#18780
b100101 <!
1\!
#18800
0\!
#18880
b100101 <!
1\!
#18900
0\!
#18980
b100101 <!
1\!
#19000
0\!
#19080
b100101 <!
1\!
#19100
0\!
#19180
b100101 <!
1\!
#19200
0\!
#19280
b100101 <!
1\!
#19300
0\!
#19380
b100101 <!
1\!
#19400
0\!
#19480
b100101 <!
1\!
#19500
0\!
#19580
b100101 <!
1\!
#19600
0\!
#19680
b100101 <!
1\!
#19700
0\!
#19780
b100101 <!
1\!
#19800
0\!
#19880
b100101 <!
1\!
#19900
0\!
#19980
b100101 <!
1\!
#20000
0\!
#20080
b100101 <!
1\!
#20100
0\!
#20180
b100101 <!
1\!
#20200
0\!
#20280
b100101 <!
1\!
#20300
0\!
#20380
b100101 <!
1\!
#20400
0\!
#20480
b100101 <!
1\!
#20500
0\!
#20580
b100101 <!
1\!
#20600
0\!
#20680
b100101 <!
1\!
#20700
0\!
#20780
b100101 <!
1\!
#20800
0\!
#20880
b100101 <!
1\!
#20900
0\!
#20980
b100101 <!
1\!
#21000
0\!
#21080
b100101 <!
1\!
#21100
0\!
#21180
b100101 <!
1\!
#21200
0\!
#21280
b100101 <!
1\!
#21300
0\!
#21380
b100101 <!
1\!
#21400
0\!
#21480
b100101 <!
1\!
#21500
0\!
#21580
b100101 <!
1\!
#21600
0\!
#21680
b100101 <!
1\!
#21700
0\!
#21780
b100101 <!
1\!
#21800
0\!
#21880
b100101 <!
1\!
#21900
0\!
#21980
b100101 <!
1\!
#22000
0\!
#22080
b100101 <!
1\!
#22100
0\!
#22180
b100101 <!
1\!
#22200
0\!
#22280
b100101 <!
1\!
#22300
0\!
#22380
b100101 <!
1\!
#22400
0\!
#22480
b100101 <!
1\!
#22500
0\!
#22580
b100101 <!
1\!
#22600
0\!
#22680
b100101 <!
1\!
#22700
0\!
#22780
b100101 <!
1\!
#22800
0\!
#22880
b100101 <!
1\!
#22900
0\!
#22980
b100101 <!
1\!
#23000
0\!
#23080
b100101 <!
1\!
#23100
0\!
#23180
b100101 <!
1\!
#23200
0\!
#23280
b100101 <!
1\!
#23300
0\!
#23380
b100101 <!
1\!
#23400
0\!
#23480
b100101 <!
1\!
#23500
0\!
#23580
b100101 <!
1\!
#23600
0\!
#23680
b100101 <!
1\!
#23700
0\!
#23780
b100101 <!
1\!
#23800
0\!
#23880
b100101 <!
1\!
#23900
0\!
#23980
b100101 <!
1\!
#24000
0\!
#24080
b100101 <!
1\!
#24100
0\!
#24180
b100101 <!
1\!
#24200
0\!
#24280
b100101 <!
1\!
#24300
0\!
#24380
b100101 <!
1\!
#24400
0\!
#24480
b100101 <!
1\!
#24500
0\!
#24580
b100101 <!
1\!
#24600
0\!
#24680
b100101 <!
1\!
#24700
0\!
#24780
b100101 <!
1\!
#24800
0\!
#24880
b100101 <!
1\!
#24900
0\!
#24980
b100101 <!
1\!
#25000
0\!
#25080
b100101 <!
1\!
#25100
0\!
#25180
b100101 <!
1\!
#25200
0\!
#25280
b100101 <!
1\!
#25300
0\!
#25380
b100101 <!
1\!
#25400
0\!
#25480
b100101 <!
1\!
#25500
0\!
#25580
b100101 <!
1\!
#25600
0\!
#25680
b100101 <!
1\!
#25700
0\!
#25780
b100101 <!
1\!
#25800
0\!
#25880
b100101 <!
1\!
#25900
0\!
#25980
b100101 <!
1\!
#26000
0\!
#26080
b100101 <!
1\!
#26100
0\!
#26180
b100101 <!
1\!
#26200
0\!
#26280
b100101 <!
1\!
#26300
0\!
#26380
b100101 <!
1\!
#26400
0\!
#26480
b100101 <!
1\!
#26500
0\!
#26580
b100101 <!
1\!
#26600
0\!
#26680
b100101 <!
1\!
#26700
0\!
#26780
b100101 <!
1\!
#26800
0\!
#26880
b100101 <!
1\!
#26900
0\!
#26980
b100101 <!
1\!
#27000
0\!
#27080
b100101 <!
1\!
#27100
0\!
#27180
b100101 <!
1\!
#27200
0\!
#27280
b100101 <!
1\!
#27300
0\!
#27380
b100101 <!
1\!
#27400
0\!
#27480
b100101 <!
1\!
#27500
0\!
#27580
b100101 <!
1\!
#27600
0\!
#27680
b100101 <!
1\!
#27700
0\!
#27780
b100101 <!
1\!
#27800
0\!
#27880
b100101 <!
1\!
#27900
0\!
#27980
b100101 <!
1\!
#28000
0\!
#28080
b100101 <!
1\!
#28100
0\!
#28180
b100101 <!
1\!
#28200
0\!
#28280
b100101 <!
1\!
#28300
0\!
#28380
b100101 <!
1\!
#28400
0\!
#28480
b100101 <!
1\!
#28500
0\!
#28580
b100101 <!
1\!
#28600
0\!
#28680
b100101 <!
1\!
#28700
0\!
#28780
b100101 <!
1\!
#28800
0\!
#28880
b100101 <!
1\!
#28900
0\!
#28980
b100101 <!
1\!
#29000
0\!
#29080
b100101 <!
1\!
#29100
0\!
#29180
b100101 <!
1\!
#29200
0\!
#29280
b100101 <!
1\!
#29300
0\!
#29380
b100101 <!
1\!
#29400
0\!
#29480
b100101 <!
1\!
#29500
0\!
#29580
b100101 <!
1\!
#29600
0\!
#29680
b100101 <!
1\!
#29700
0\!
#29780
b100101 <!
1\!
#29800
0\!
#29880
b100101 <!
1\!
#29900
0\!
#29980
b100101 <!
1\!
#30000
0\!
#30080
b100101 <!
1\!
#30100
0\!
#30180
b100101 <!
1\!
#30200
0\!
#30280
b100101 <!
1\!
#30300
0\!
#30380
b100101 <!
1\!
#30400
0\!
#30480
b100101 <!
1\!
#30500
0\!
#30580
b100101 <!
1\!
#30600
0\!
#30680
b100101 <!
1\!
#30700
0\!
#30780
b100101 <!
1\!
#30800
0\!
#30880
b100101 <!
1\!
#30900
0\!
#30980
b100101 <!
1\!
#31000
0\!
#31080
b100101 <!
1\!
#31100
0\!
#31180
b100101 <!
1\!
#31200
0\!
#31280
b100101 <!
1\!
#31300
0\!
#31380
b100101 <!
1\!
#31400
0\!
#31480
b100101 <!
1\!
#31500
0\!
#31580
b100101 <!
1\!
#31600
0\!
#31680
b100101 <!
1\!
#31700
0\!
#31780
b100101 <!
1\!
#31800
0\!
#31880
b100101 <!
1\!
#31900
0\!
#31980
b100101 <!
1\!
#32000
0\!
#32080
b100101 <!
1\!
#32100
0\!
#32180
b100101 <!
1\!
#32200
0\!
#32280
b100101 <!
1\!
#32300
0\!
#32380
b100101 <!
1\!
#32400
0\!
#32480
b100101 <!
1\!
#32500
0\!
#32580
b100101 <!
1\!
#32600
0\!
#32680
b100101 <!
1\!
#32700
0\!
#32780
b100101 <!
1\!
#32800
0\!
#32880
b100101 <!
1\!
#32900
0\!
#32980
b100101 <!
1\!
#33000
0\!
#33080
b100101 <!
1\!
#33100
0\!
#33180
b100101 <!
1\!
#33200
0\!
#33280
b100101 <!
1\!
#33300
0\!
#33380
b100101 <!
1\!
#33400
0\!
#33480
b100101 <!
1\!
#33500
0\!
#33580
b100101 <!
1\!
#33600
0\!
#33680
b100101 <!
1\!
#33700
0\!
#33780
b100101 <!
1\!
#33800
0\!
#33880
b100101 <!
1\!
#33900
0\!
#33980
b100101 <!
1\!
#34000
0\!
#34080
b100101 <!
1\!
#34100
0\!
#34180
b100101 <!
1\!
#34200
0\!
#34280
b100101 <!
1\!
#34300
0\!
#34380
b100101 <!
1\!
#34400
0\!
#34480
b100101 <!
1\!
#34500
0\!
#34580
b100101 <!
1\!
#34600
0\!
#34680
b100101 <!
1\!
#34700
0\!
#34780
b100101 <!
1\!
#34800
0\!
#34880
b100101 <!
1\!
#34900
0\!
#34980
b100101 <!
1\!
#35000
0\!
#35080
b100101 <!
1\!
#35100
0\!
#35180
b100101 <!
1\!
#35200
0\!
#35280
b100101 <!
1\!
#35300
0\!
#35380
b100101 <!
1\!
#35400
0\!
#35480
b100101 <!
1\!
#35500
0\!
#35580
b100101 <!
1\!
#35600
0\!
#35680
b100101 <!
1\!
#35700
0\!
#35780
b100101 <!
1\!
#35800
0\!
#35880
b100101 <!
1\!
#35900
0\!
#35980
b100101 <!
1\!
#36000
0\!
#36080
b100101 <!
1\!
#36100
0\!
#36180
b100101 <!
1\!
#36200
0\!
#36280
b100101 <!
1\!
#36300
0\!
#36380
b100101 <!
1\!
#36400
0\!
#36480
b100101 <!
1\!
#36500
0\!
#36580
b100101 <!
1\!
#36600
0\!
#36680
b100101 <!
1\!
#36700
0\!
#36780
b100101 <!
1\!
#36800
0\!
#36880
b100101 <!
1\!
#36900
0\!
#36980
b100101 <!
1\!
#37000
0\!
#37080
b100101 <!
1\!
#37100
0\!
#37180
b100101 <!
1\!
#37200
0\!
#37280
b100101 <!
1\!
#37300
0\!
#37380
b100101 <!
1\!
#37400
0\!
#37480
b100101 <!
1\!
#37500
0\!
#37580
b100101 <!
1\!
#37600
0\!
#37680
b100101 <!
1\!
#37700
0\!
#37780
b100101 <!
1\!
#37800
0\!
#37880
b100101 <!
1\!
#37900
0\!
#37980
b100101 <!
1\!
#38000
0\!
#38080
b100101 <!
1\!
#38100
0\!
#38180
b100101 <!
1\!
#38200
0\!
#38280
b100101 <!
1\!
#38300
0\!
#38380
b100101 <!
1\!
#38400
0\!
#38480
b100101 <!
1\!
#38500
0\!
#38580
b100101 <!
1\!
#38600
0\!
#38680
b100101 <!
1\!
#38700
0\!
#38780
b100101 <!
1\!
#38800
0\!
#38880
b100101 <!
1\!
#38900
0\!
#38980
b100101 <!
1\!
#39000
0\!
#39080
b100101 <!
1\!
#39100
0\!
#39180
b100101 <!
1\!
#39200
0\!
#39280
b100101 <!
1\!
#39300
0\!
#39380
b100101 <!
1\!
#39400
0\!
#39480
b100101 <!
1\!
#39500
0\!
#39580
b100101 <!
1\!
#39600
0\!
#39680
b100101 <!
1\!
#39700
0\!
#39780
b100101 <!
1\!
#39800
0\!
#39880
b100101 <!
1\!
#39900
0\!
#39980
b100101 <!
1\!
#40000
0\!
