targets/Simulation.vcd
$date
	2025-11-20.20:09:01
$end
$version
	Novakod Studio 2018.
$end
$comment
    Port Identifier:
	     >? Input  Port
	     <? Output Port
	     /? Input  Event Port
	     \? Output Event Port
$end
$timescale
	1 ns
$end
$scope module top $end
    $var
        reg 2 >! iCmd
    $end
    $var
        reg 1 /! iCmd_ev
    $end
    $var
        reg 8 >" iLoadVal
    $end
    $var
        reg 8 <! oValue
    $end
    $var
        reg 1 \! oValue_ev
    $end
$upscope $end $enddefinitions $end


#0
#100
b1 >!
1/!
#120
0/!
#200
b1 >!
1/!
#220
0/!
#300
b1 >!
1/!
#320
0/!
#400
b1 >!
1/!
#420
0/!
#500
b1 >!
1/!
#520
0/!
#600
b1 >!
1/!
#620
0/!
#700
b1 >!
1/!
#720
0/!
#800
b1 >!
1/!
#820
0/!
#900
b10 >!
1/!
#920
0/!
#1000
b10 >!
1/!
#1020
0/!
#1100
b11 >!
1/!
b10100 >"
#1120
0/!
#1200
b1 >!
1/!
#1220
0/!
#1300
b1 >!
1/!
#1320
0/!
#1400
b1 >!
1/!
#1420
0/!
#1500
b1 >!
1/!
#1520
0/!
#1600
b1 >!
1/!
#1620
0/!
#1700
b1 >!
1/!
#1720
0/!
#1800
b0 >!
1/!
#1820
0/!
